{
"service":
  { "name": "node.exporter",
    "tags": [ "node" ],
    "port": 9100,
    "check":
      {
         "id": "node.exporter",
         "name": "Test check",
         "http": "http://localhost",
         "method": "GET",
         "interval": "10s",
         "timeout": "1s"
      }
  }
}

